<svg xmlns="http://www.w3.org/2000/svg" viewBox="0 0 114.39 95.05">
  <defs>
    <style>.cls-1{fill:none;stroke:#fff;stroke-miterlimit:10;stroke-width:3px;}</style>
  </defs>
  <g id="Layer_2" data-name="Layer 2">
    <g id="Shadow">
      <path class="cls-1" d="M13.78,42.53c-.61.6-1,2-2,4-1.28,2.55-4.78,5.7-6,5-7-4-4.51-18.46,1-28S21.87,8.64,28.47,12.45c2,1.17,2.75,2.42,2.59,3.86"/>
      <path class="cls-1" d="M101.78,44.53c1.26,2.44,1.44,3.44,3,5,1,1,3,3,5,1,3.54-3.54,5-15-.75-25.72-5.84-10.88-13.25-14.28-20.25-13.28-2.16.31-4.49,2.68-4.21,4.24"/>
      <path class="cls-1" d="M28.78,12.53c3.67-2.25,4.8-4.45,11-7,17-7,33-5,47,7"/>
      <path class="cls-1" d="M101.78,42.53a42.61,42.61,0,0,0,1,10c1,4,.76,2.78,1,4,1,5,2,7,2.46,11.14a11.7,11.7,0,0,1-2.46,8.86c-1.9,2.53-4.94,4.87-9,7a91.06,91.06,0,0,1-12,5c-7.35,2.45-16.73,4.77-24,5a64.38,64.38,0,0,1-16-2c-11-2.48-22.42-7.08-29-13-4.51-4.06-4.35-10.46-3-16a127.8,127.8,0,0,0,3-15c.29-2.71-.09-6.2,0-7"/>
    </g>
  </g>
</svg>